<?xml version="1.0"?>
<svg viewBox="0 0 170 170" version="1.1"
  xmlns="http://www.w3.org/2000/svg">

<circle cx="65.0985" cy="81.4742" r="6.23622" fill="none" stroke="magenta" stroke-width="2" />
<circle cx="112.086" cy="19.3857" r="1.86462" fill="none" stroke="magenta" stroke-width="2" />
<circle cx="112.086" cy="19.3857" r="4.15943" fill="none" stroke="magenta" stroke-width="2" />
<circle cx="44.4736" cy="108.158" r="5.47331" fill="none" stroke="magenta" stroke-width="2" />
<circle cx="112.979" cy="141.656" r="5.51969" fill="none" stroke="magenta" stroke-width="2" />
<circle cx="147.505" cy="144.876" r="0.309749" fill="none" stroke="magenta" stroke-width="2" />
<circle cx="120.906" cy="152.95" r="3.11414" fill="none" stroke="magenta" stroke-width="2" />
<circle cx="120.906" cy="152.95" r="5.83525" fill="none" stroke="magenta" stroke-width="2" />
<circle cx="144.705" cy="4.39203" r="5.84581" fill="none" stroke="magenta" stroke-width="2" />
<circle cx="109.092" cy="7.12341" r="1.56506" fill="none" stroke="magenta" stroke-width="2" />
<circle cx="109.092" cy="7.12341" r="4.47536" fill="none" stroke="magenta" stroke-width="2" />
<circle cx="162.437" cy="10.1615" r="2.37426" fill="none" stroke="magenta" stroke-width="2" />
<circle cx="110.249" cy="15.7666" r="0.941009" fill="none" stroke="magenta" stroke-width="2" />
<circle cx="105.205" cy="19.326" r="0.911194" fill="none" stroke="magenta" stroke-width="2" />
<circle cx="97.545" cy="21.734" r="1.14071" fill="none" stroke="magenta" stroke-width="2" />
<circle cx="112.82" cy="23.1417" r="5.22075" fill="none" stroke="magenta" stroke-width="2" />
<circle cx="155.623" cy="24.7856" r="4.40086" fill="none" stroke="magenta" stroke-width="2" />
<circle cx="105.356" cy="29.8373" r="1.97682" fill="none" stroke="magenta" stroke-width="2" />
<circle cx="105.356" cy="29.8373" r="4.57205" fill="none" stroke="magenta" stroke-width="2" />
<circle cx="33.5558" cy="44.7" r="0.958173" fill="none" stroke="magenta" stroke-width="2" />
<circle cx="33.5558" cy="44.7" r="2.22511" fill="none" stroke="magenta" stroke-width="2" />
<circle cx="32.0161" cy="49.2112" r="5.18726" fill="none" stroke="magenta" stroke-width="2" />
<circle cx="69.0131" cy="51.829" r="4.46133" fill="none" stroke="magenta" stroke-width="2" />
<circle cx="15.8656" cy="54.8583" r="1.46757" fill="none" stroke="magenta" stroke-width="2" />
<circle cx="45.3809" cy="69.1381" r="4.75206" fill="none" stroke="magenta" stroke-width="2" />
<circle cx="97.5733" cy="83.5456" r="2.71452" fill="none" stroke="magenta" stroke-width="2" />
<circle cx="66.1617" cy="84.8921" r="6.05332" fill="none" stroke="magenta" stroke-width="2" />
<circle cx="90.3294" cy="89.2459" r="5.86265" fill="none" stroke="magenta" stroke-width="2" />
<circle cx="38.4595" cy="91.2467" r="6.10658" fill="none" stroke="magenta" stroke-width="2" />
<circle cx="148.434" cy="91.824" r="5.54786" fill="none" stroke="magenta" stroke-width="2" />
<circle cx="9.6346" cy="92.9436" r="6.14807" fill="none" stroke="magenta" stroke-width="2" />
<circle cx="94.1899" cy="96.0025" r="5.7412" fill="none" stroke="magenta" stroke-width="2" />
<circle cx="162.523" cy="99.1553" r="2.10427" fill="none" stroke="magenta" stroke-width="2" />
<circle cx="92.395" cy="111.653" r="6.27708" fill="none" stroke="magenta" stroke-width="2" />
<circle cx="14.0934" cy="111.967" r="5.55062" fill="none" stroke="magenta" stroke-width="2" />
<circle cx="112.626" cy="136.647" r="5.7415" fill="none" stroke="magenta" stroke-width="2" />
<circle cx="121.56" cy="162.045" r="0.254411" fill="none" stroke="magenta" stroke-width="2" />
<circle cx="121.56" cy="162.045" r="2.44369" fill="none" stroke="magenta" stroke-width="2" />
<circle cx="86.3373" cy="2.97137" r="0.411657" fill="none" stroke="magenta" stroke-width="2" />
<circle cx="100.782" cy="8.80721" r="4.59759" fill="none" stroke="magenta" stroke-width="2" />
<circle cx="116.886" cy="13.4139" r="4.28243" fill="none" stroke="magenta" stroke-width="2" />
<circle cx="160.529" cy="14.9972" r="4.75366" fill="none" stroke="magenta" stroke-width="2" />
<circle cx="43.7711" cy="18.2882" r="1.46082" fill="none" stroke="magenta" stroke-width="2" />
<circle cx="43.7711" cy="18.2882" r="5.0702" fill="none" stroke="magenta" stroke-width="2" />
<circle cx="51.7345" cy="19.1525" r="1.63018" fill="none" stroke="magenta" stroke-width="2" />
<circle cx="51.7345" cy="19.1525" r="4.92527" fill="none" stroke="magenta" stroke-width="2" />
<circle cx="115.727" cy="18.6579" r="4.27339" fill="none" stroke="magenta" stroke-width="2" />
<circle cx="58.6354" cy="20.2621" r="1.74343" fill="none" stroke="magenta" stroke-width="2" />
<circle cx="97.7028" cy="30.2485" r="5.00189" fill="none" stroke="magenta" stroke-width="2" />
<circle cx="142.232" cy="34.3105" r="4.19435" fill="none" stroke="magenta" stroke-width="2" />
<circle cx="50.5544" cy="41.0838" r="4.98896" fill="none" stroke="magenta" stroke-width="2" />
<circle cx="51.1304" cy="46.7457" r="4.91107" fill="none" stroke="magenta" stroke-width="2" />
<circle cx="39.5559" cy="50.7364" r="5.06934" fill="none" stroke="magenta" stroke-width="2" />
<circle cx="22.1879" cy="55.1914" r="4.85101" fill="none" stroke="magenta" stroke-width="2" />
<circle cx="67.4536" cy="56.3647" r="1.71034" fill="none" stroke="magenta" stroke-width="2" />
<circle cx="63.8486" cy="61.1223" r="1.50428" fill="none" stroke="magenta" stroke-width="2" />
<circle cx="40.3324" cy="70.1701" r="4.73865" fill="none" stroke="magenta" stroke-width="2" />
<circle cx="68.2719" cy="78.5594" r="5.7874" fill="none" stroke="magenta" stroke-width="2" />
<circle cx="162.192" cy="83.2151" r="5.64305" fill="none" stroke="magenta" stroke-width="2" />
<circle cx="19.6894" cy="92.9633" r="6.10928" fill="none" stroke="magenta" stroke-width="2" />
<circle cx="88.0363" cy="94.4265" r="5.75467" fill="none" stroke="magenta" stroke-width="2" />
<circle cx="49.678" cy="94.787" r="5.97789" fill="none" stroke="magenta" stroke-width="2" />
<circle cx="55.438" cy="100.071" r="3.23764" fill="none" stroke="magenta" stroke-width="2" />
<circle cx="100.603" cy="105.698" r="5.87967" fill="none" stroke="magenta" stroke-width="2" />
<circle cx="86.6407" cy="111.387" r="5.84594" fill="none" stroke="magenta" stroke-width="2" />
<circle cx="98.255" cy="114.553" r="5.87434" fill="none" stroke="magenta" stroke-width="2" />
<circle cx="73.9726" cy="117.317" r="2.7686" fill="none" stroke="magenta" stroke-width="2" />
<circle cx="73.9726" cy="117.317" r="6.21486" fill="none" stroke="magenta" stroke-width="2" />
<circle cx="104.13" cy="128.177" r="5.67154" fill="none" stroke="magenta" stroke-width="2" />
<circle cx="103.209" cy="134.58" r="5.54836" fill="none" stroke="magenta" stroke-width="2" />
<circle cx="124.917" cy="149.454" r="5.34315" fill="none" stroke="magenta" stroke-width="2" />
<circle cx="94.672" cy="159.61" r="5.80263" fill="none" stroke="magenta" stroke-width="2" />
<circle cx="102.178" cy="164.681" r="2.41276" fill="none" stroke="magenta" stroke-width="2" />
<circle cx="102.178" cy="164.681" r="5.45715" fill="none" stroke="magenta" stroke-width="2" />
<circle cx="39.8979" cy="5.55988" r="4.93728" fill="none" stroke="magenta" stroke-width="2" />
<circle cx="153.344" cy="10.0524" r="5.28072" fill="none" stroke="magenta" stroke-width="2" />
<circle cx="19.5048" cy="49.0734" r="1.46814" fill="none" stroke="magenta" stroke-width="2" />
<circle cx="25.4532" cy="49.5083" r="1.38848" fill="none" stroke="magenta" stroke-width="2" />
<circle cx="25.4532" cy="49.5083" r="4.7572" fill="none" stroke="magenta" stroke-width="2" />
<circle cx="18.6303" cy="61.0512" r="2.43804" fill="none" stroke="magenta" stroke-width="2" />
<circle cx="14.2609" cy="67.5426" r="0.750315" fill="none" stroke="magenta" stroke-width="2" />
<circle cx="14.2609" cy="67.5426" r="5.474" fill="none" stroke="magenta" stroke-width="2" />
<circle cx="84.1283" cy="83.8305" r="2.86062" fill="none" stroke="magenta" stroke-width="2" />
<circle cx="24.7019" cy="89.2545" r="3.19624" fill="none" stroke="magenta" stroke-width="2" />
<circle cx="54.6557" cy="90.9202" r="3.11726" fill="none" stroke="magenta" stroke-width="2" />
<circle cx="25.5026" cy="98.1409" r="3.11125" fill="none" stroke="magenta" stroke-width="2" />
<circle cx="162.77" cy="104.306" r="5.49717" fill="none" stroke="magenta" stroke-width="2" />
<circle cx="70.7439" cy="107.965" r="2.56937" fill="none" stroke="magenta" stroke-width="2" />
<circle cx="56.588" cy="111.179" r="2.96632" fill="none" stroke="magenta" stroke-width="2" />
<circle cx="56.588" cy="111.179" r="5.83493" fill="none" stroke="magenta" stroke-width="2" />
<circle cx="134.896" cy="154.504" r="5.70235" fill="none" stroke="magenta" stroke-width="2" />
<circle cx="137.438" cy="5.93076" r="6.06698" fill="none" stroke="magenta" stroke-width="2" />
<circle cx="148.145" cy="17.5268" r="5.26417" fill="none" stroke="magenta" stroke-width="2" />
<circle cx="56.1941" cy="58.2964" r="2.2876" fill="none" stroke="magenta" stroke-width="2" />
<circle cx="53.0106" cy="72.5726" r="3.05217" fill="none" stroke="magenta" stroke-width="2" />
<circle cx="145.595" cy="77.9739" r="5.5596" fill="none" stroke="magenta" stroke-width="2" />
<circle cx="39.6499" cy="79.0512" r="5.97602" fill="none" stroke="magenta" stroke-width="2" />
<circle cx="77.463" cy="87.5603" r="5.19148" fill="none" stroke="magenta" stroke-width="2" />
<circle cx="156.493" cy="87.5738" r="5.60282" fill="none" stroke="magenta" stroke-width="2" />
<circle cx="75.2991" cy="97.7804" r="5.46634" fill="none" stroke="magenta" stroke-width="2" />
<circle cx="91.5306" cy="104.048" r="5.41144" fill="none" stroke="magenta" stroke-width="2" />
<circle cx="82.3396" cy="119.635" r="2.64371" fill="none" stroke="magenta" stroke-width="2" />
<circle cx="60.5109" cy="128.586" r="5.95843" fill="none" stroke="magenta" stroke-width="2" />
<circle cx="53.5499" cy="131.803" r="5.97248" fill="none" stroke="magenta" stroke-width="2" />
<circle cx="76.1289" cy="140.799" r="5.71714" fill="none" stroke="magenta" stroke-width="2" />
<circle cx="126.146" cy="142.042" r="2.59312" fill="none" stroke="magenta" stroke-width="2" />
<circle cx="86.2911" cy="144.27" r="5.6632" fill="none" stroke="magenta" stroke-width="2" />
<circle cx="68.4133" cy="144.956" r="5.58439" fill="none" stroke="magenta" stroke-width="2" />
<circle cx="139.288" cy="147.922" r="2.66581" fill="none" stroke="magenta" stroke-width="2" />
<circle cx="85.6162" cy="155.163" r="5.62333" fill="none" stroke="magenta" stroke-width="2" />
<circle cx="50.2152" cy="10.0265" r="1.55996" fill="none" stroke="magenta" stroke-width="2" />
<circle cx="70.711" cy="66.8906" r="2.45953" fill="none" stroke="magenta" stroke-width="2" />
<circle cx="21.8978" cy="75.5617" r="3.18828" fill="none" stroke="magenta" stroke-width="2" />
<circle cx="21.8978" cy="75.5617" r="5.97096" fill="none" stroke="magenta" stroke-width="2" />
<circle cx="62.1753" cy="78.8341" r="3.15979" fill="none" stroke="magenta" stroke-width="2" />
<circle cx="131.883" cy="110.602" r="2.63956" fill="none" stroke="magenta" stroke-width="2" />
<circle cx="153.779" cy="149.194" r="2.61552" fill="none" stroke="magenta" stroke-width="2" />
<circle cx="147.787" cy="158.906" r="2.69093" fill="none" stroke="magenta" stroke-width="2" />
<circle cx="130.176" cy="79.7774" r="2.61143" fill="none" stroke="magenta" stroke-width="2" />
<circle cx="91.7914" cy="129.214" r="2.50908" fill="none" stroke="magenta" stroke-width="2" />
<circle cx="91.7914" cy="129.214" r="5.68694" fill="none" stroke="magenta" stroke-width="2" />
<circle cx="50.7571" cy="97.7242" r="5.51669" fill="none" stroke="magenta" stroke-width="2" />
<circle cx="111.556" cy="152.945" r="5.38852" fill="none" stroke="magenta" stroke-width="2" />
<circle cx="101.186" cy="49.8265" r="2.15197" fill="none" stroke="magenta" stroke-width="2" />
<circle cx="45.1383" cy="73.8334" r="5.3247" fill="none" stroke="magenta" stroke-width="2" />
</svg>
